0.024805
0.027878
0.03182
0.037061
0.044369
0.055266
0.073258
0.10862
0.20998
3.1416
3.1428
3.1466
3.1528
3.1615
3.1728
3.1866
3.2031
3.2221
3.2439
3.2684
3.2956
3.3257
3.3586
3.3944
3.4331
3.4747
3.5192
3.5666
3.6169
3.67
3.726
3.7846
3.8458
3.9095
3.9754
4.0435
4.1134
4.1849
4.2578
4.3317
4.4063
4.4811
4.5558
4.6298
4.7027
4.7739
4.8429
4.9091
4.9718
5.0305
5.0843
5.1326
5.1746
5.2097
5.2371
5.2559
5.2656
5.2652
5.254
5.2314
5.1966
5.149
5.0878
5.0126
4.9227
4.8178
4.6974
4.5613
4.4091
4.2408
4.0563
3.8558
3.6393
3.4073
3.16
2.8981
2.6221
2.3328
2.031
1.7175
1.3932
1.0589
0.71549
0.36322
